<svg width="24" height="24" viewBox="0 0 24 24" fill="none" xmlns="http://www.w3.org/2000/svg">
    <path d="M18.4141 2C18.1581 2 17.902 2.09797 17.707 2.29297L15.707 4.29297L14.293 5.70703L3 17V21H7L21.707 6.29297C22.098 5.90197 22.098 5.26891 21.707 4.87891L19.1211 2.29297C18.9261 2.09797 18.6701 2 18.4141 2ZM18.4141 4.41406L19.5859 5.58594L18.293 6.87891L17.1211 5.70703L18.4141 4.41406ZM15.707 7.12109L16.8789 8.29297L6.17188 19H5V17.8281L15.707 7.12109Z" fill="#4E4E4E"/>
    </svg>
    