<svg width="19" height="18" viewBox="0 0 19 18" fill="none" xmlns="http://www.w3.org/2000/svg">
<path d="M16 0L15 2L6 5H2C0.9 5 0 5.9 0 7V11C0 12.1 0.9 13 2 13H4V18H6V13L15 16L16 18H18V10.7227C18.5956 10.3764 19 9.73895 19 9C19 8.26105 18.5956 7.62361 18 7.27734V0H16ZM16 3.77539V14.2246L15.6328 14.1016L8 11.5586V6.44141L15.6328 3.89844L16 3.77539ZM2 7H6V11H4H2V7Z" fill="#6C5DD3"/>
</svg>
