{
  "$ref": "#/definitions/Question",
  "$schema": "http://json-schema.org/draft-07/schema#",
  "definitions": {
    "Question": {
      "additionalProperties": false,
      "properties": {
        "details": {
          "description": "Optional human-readable details or clarifiation about this question.",
          "type": "string"
        },
        "enableWhenExpression": {
          "description": "Logic expression to decide whether the question should be displayed or not.\nDefaults to true.",
          "type": "string"
        },
        "enableWhenExpressionString": {
          "description": "Logic expression in string representation",
          "type": "string"
        },
        "id": {
          "description": "Unique id for referring this question in logic expressions.",
          "type": "string",
          "pattern": "^[a-z][a-z0-9]*(_[a-z0-9]+)*$"
        },
        "optional": {
          "description": "Boolean indicating whether the question is optional or not.",
          "type": "boolean"
        },
        "text": {
          "description": "Human-readable question text, can be localized.",
          "type": "string"
        },
        "type": {
          "type": "string",
          "enum": [
            "select",
            "multiselect",
            "number",
            "boolean",
            "date",
            "text"
          ],
          "description": "Type of the question."
        }
      },
      "required": ["id", "text", "type"],
      "title": "Question",
      "type": "object",
      "dependencies": {
        "type": {
          "oneOf": [
            {
              "properties": {
                "type": {
                  "enum": ["boolean", "text", "date"]
                }
              }
            },
            {
              "properties": {
                "type": {
                  "enum": ["multiselect", "select"]
                },
                "options": {
                  "type": "array",
                  "title": "Answer options for Select/Multiselect questions.",
                  "items": {
                    "type": "object",
                    "required": ["text", "value"],
                    "properties": {
                      "text": {
                        "description": "Human-Readable answer, can be localized.",
                        "type": "string"
                      },
                      "value": {
                        "description": "Value used for evaluating logic expressions.",
                        "type": "string"
                      },
                      "scores": {
                        "title": "Scores",
                        "type": "object",
                        "additionalProperties": {
                          "type": "number"
                        }
                      }
                    }
                  }
                }
              }
            },
            {
              "properties": {
                "type": {
                  "enum": ["number"]
                },
                "numericOptions": {
                  "title": "Answer options for Numeric questions.",
                  "$ref": "#/definitions/NumericOptions"
                }
              }
            }
          ]
        }
      }
    },
    "NumericOptions": {
      "additionalProperties": false,
      "title": "",
      "properties": {
        "defaultValue": {
          "description": "Default value",
          "type": "number"
        },
        "max": {
          "description": "maximal value",
          "type": "number"
        },
        "min": {
          "description": "Minimal value",
          "type": "number"
        },
        "step": {
          "description": "Step size",
          "type": "number"
        }
      },
      "type": "object"
    }
  }
}
