<svg width="15" height="18" viewBox="0 0 15 18" fill="none" xmlns="http://www.w3.org/2000/svg">
<path d="M5.8335 0.666992L5.00016 1.50033H0.833496V3.16699H1.66683V15.667C1.66683 16.1022 1.82627 16.5458 2.14046 16.86C2.45465 17.1742 2.89831 17.3337 3.3335 17.3337H11.6668C12.102 17.3337 12.5457 17.1742 12.8599 16.86C13.1741 16.5458 13.3335 16.1022 13.3335 15.667V3.16699H14.1668V1.50033H10.0002L9.16683 0.666992H5.8335ZM3.3335 3.16699H11.6668V15.667H3.3335V3.16699ZM5.00016 4.83366V14.0003H6.66683V4.83366H5.00016ZM8.3335 4.83366V14.0003H10.0002V4.83366H8.3335Z" fill="#6C5DD3"/>
</svg>
