<svg width="19" height="20" viewBox="0 0 19 20" fill="none" xmlns="http://www.w3.org/2000/svg">
<path d="M3.7998 0V2H2.7998C1.6968 2 0.799805 2.897 0.799805 4V18C0.799805 19.103 1.6968 20 2.7998 20H16.7998C17.9028 20 18.7998 19.103 18.7998 18V4C18.7998 2.897 17.9028 2 16.7998 2H15.7998V0H13.7998V2H5.7998V0H3.7998ZM2.7998 4H16.7998V6H2.7998V4ZM2.7998 8H16.7998L16.8018 18H2.7998V8ZM6.7998 12V14H12.7998V12H6.7998Z" fill="white"/>
</svg>
