<svg width="68" height="176" viewBox="0 0 68 176" fill="none" xmlns="http://www.w3.org/2000/svg">
<path opacity="0.5" d="M67.0651 88.6626C66.8561 87.3006 65.9481 84.4026 65.1331 81.6196C64.3181 78.8366 62.9621 72.6276 61.7051 66.9116C60.8557 62.8407 59.4268 58.9127 57.4621 55.2476C56.4551 53.3616 55.1341 48.1286 54.1621 44.7996C53.3621 42.0466 53.2831 37.8386 52.6621 35.5566C52.0808 33.3177 50.9158 31.2731 49.2861 29.6316C46.1712 27.7192 42.9116 26.0531 39.5371 24.6486C39.3141 24.5712 39.1175 24.4323 38.9701 24.2479C38.8227 24.0635 38.7305 23.8412 38.7041 23.6066L38.2971 19.6716C38.6897 18.97 39.0432 18.2472 39.3561 17.5066C39.5556 16.7356 39.7016 15.9517 39.7931 15.1606C39.8349 15.2574 39.9106 15.3357 40.0059 15.3807C40.1013 15.4258 40.2097 15.4347 40.3111 15.4056C40.723 15.0819 41.0622 14.6752 41.3068 14.212C41.5514 13.7487 41.696 13.2393 41.7311 12.7166C41.8711 11.1166 41.8481 10.3066 41.4811 10.0746C41.1551 9.8746 40.5811 10.2546 40.5811 10.2546C40.903 8.02179 40.5378 5.74389 39.5341 3.7236C38.9926 2.72421 38.1686 1.90651 37.1651 1.3726C36.1258 0.799558 34.9584 0.499023 33.7716 0.499023C32.5848 0.499023 31.4174 0.799558 30.3781 1.3726C29.3746 1.90651 28.5506 2.72421 28.0091 3.7236C27.0048 5.74372 26.6393 8.02169 26.9611 10.2546C26.9611 10.2546 26.3911 9.8766 26.0611 10.0746C25.6941 10.3066 25.6711 11.1166 25.8101 12.7166C25.8452 13.2394 25.9898 13.749 26.2346 14.2122C26.4794 14.6755 26.8189 15.0821 27.2311 15.4056C27.3326 15.4347 27.4412 15.4259 27.5367 15.3808C27.6322 15.3358 27.7081 15.2575 27.7501 15.1606C27.8406 15.9518 27.9863 16.7357 28.1861 17.5066C28.4987 18.2473 28.8523 18.9701 29.2451 19.6716L28.8381 23.6066C28.8129 23.8407 28.7218 24.0629 28.5754 24.2473C28.4291 24.4318 28.2334 24.5709 28.0111 24.6486C24.6341 26.0518 21.3724 27.7179 18.2561 29.6316C16.6258 31.2727 15.4608 33.3174 14.8801 35.5566C14.2571 37.8386 14.1801 42.0466 13.3801 44.7996C12.4081 48.1296 11.0871 53.3616 10.0801 55.2476C8.11771 58.9138 6.68895 62.8414 5.8371 66.9116C4.5801 72.6276 3.21811 78.8376 2.40911 81.6196C1.60011 84.4016 0.687102 87.3006 0.477102 88.6626C0.267102 90.0246 -0.0059028 90.9326 9.72019e-05 91.5266C0.146341 92.9969 0.452828 94.4469 0.914099 95.8506C1.0591 96.0076 1.6141 95.7916 1.7871 95.0296C1.9791 94.1686 2.12511 93.2436 2.18711 92.7946C2.20759 92.1377 2.29334 91.4845 2.44311 90.8446C2.63511 90.3156 3.69511 88.0336 3.91511 87.7136C3.99062 87.5988 4.0927 87.5038 4.2127 87.4369C4.33269 87.3699 4.46707 87.3328 4.60444 87.3288C4.74181 87.3248 4.87811 87.3539 5.00182 87.4137C5.12553 87.4736 5.233 87.5624 5.3151 87.6726C5.56069 88.4786 5.87623 89.2615 6.25811 90.0126C6.35823 90.102 6.47881 90.1654 6.60923 90.1972C6.73965 90.229 6.87591 90.2283 7.00596 90.195C7.136 90.1617 7.25586 90.0969 7.35494 90.0063C7.45402 89.9157 7.52929 89.8021 7.5741 89.6756C7.7071 89.1336 6.9451 87.6846 6.8991 86.7536C6.75467 85.7076 6.35263 84.7138 5.7291 83.8616C5.48512 83.5945 5.33273 83.2565 5.29406 82.8968C5.25539 82.5371 5.33247 82.1745 5.5141 81.8616C5.9041 81.2156 12.3591 69.1726 14.1341 65.2556C14.9715 63.3728 15.5759 61.3948 15.9341 59.3656C16.0511 58.6956 17.4941 53.6656 18.9671 49.5166C20.1081 46.3036 21.3761 43.6666 21.3761 43.6666C21.3761 43.6666 24.4321 51.6236 24.4321 57.0306C24.4321 59.6906 21.9991 69.6786 20.8931 71.2306C19.8511 72.6926 17.6221 83.1456 17.6221 91.2946C17.6221 99.4436 20.1601 121.154 20.1601 124.495C20.1601 127.836 18.6341 136.555 19.1121 142.702C19.5901 148.849 20.6371 156.902 20.8641 160.286C21.0065 161.588 21.0569 162.899 21.0151 164.209C20.9645 164.684 20.8368 165.148 20.6371 165.583C20.4861 165.926 19.7121 168.563 19.2061 169.524C18.3934 170.883 17.4872 172.184 16.4941 173.418C16.2141 173.878 16.1441 174.718 18.0831 175.118C19.8291 175.485 20.9351 175.938 22.1741 174.623C23.1811 173.557 24.5491 171.783 24.5491 171.783C25.0119 171.71 25.4471 171.516 25.8101 171.22C26.1732 170.924 26.451 170.536 26.6151 170.098C27.0861 168.625 25.7891 167.24 25.7891 166.047C25.7891 164.854 25.5971 161.547 25.9461 156.472C26.1851 153.032 27.7271 145.436 27.9191 142.272C28.1111 139.108 27.5191 129.298 27.4541 127.61C27.3891 125.922 33.3731 96.3706 33.3731 87.3486C33.6343 87.4251 33.9119 87.4251 34.1731 87.3486C34.1731 96.3696 40.1561 125.916 40.0921 127.61C40.0281 129.304 39.4341 139.11 39.6271 142.272C39.8201 145.434 41.3611 153.034 41.5991 156.472C41.9491 161.542 41.7561 164.848 41.7561 166.047C41.7561 167.246 40.4561 168.625 40.9301 170.098C41.0947 170.536 41.3728 170.923 41.736 171.218C42.0992 171.514 42.5344 171.708 42.9971 171.78C42.9971 171.78 44.3641 173.555 45.3711 174.62C46.6161 175.935 47.7181 175.481 49.4631 175.115C51.4011 174.715 51.3311 173.875 51.0521 173.415C50.0588 172.181 49.1526 170.88 48.3401 169.521C47.8341 168.56 47.0601 165.921 46.9081 165.58C46.7087 165.145 46.5811 164.681 46.5301 164.206C46.4887 162.896 46.5391 161.585 46.6811 160.283C46.9081 156.902 47.9561 148.852 48.4331 142.699C48.9101 136.546 47.3851 127.834 47.3851 124.492C47.3851 121.15 49.9231 99.4346 49.9231 91.2916C49.9231 83.1486 47.6941 72.6916 46.6521 71.2276C45.5451 69.6736 43.1131 59.6856 43.1131 57.0276C43.1131 51.6206 46.1691 43.6636 46.1691 43.6636C46.1691 43.6636 47.4381 46.3006 48.5781 49.5136C50.0511 53.6636 51.4941 58.6926 51.6111 59.3626C51.969 61.3919 52.5735 63.3699 53.4111 65.2526C55.1861 69.1696 61.6411 81.2126 62.0311 81.8586C62.2127 82.1715 62.2898 82.5341 62.2511 82.8938C62.2125 83.2535 62.0601 83.5915 61.8161 83.8586C61.1923 84.7106 60.7902 85.7045 60.6461 86.7506C60.5991 87.6816 59.8371 89.1316 59.9711 89.6726C60.0158 89.7991 60.0909 89.9127 60.1899 90.0033C60.2889 90.0939 60.4087 90.1587 60.5387 90.192C60.6687 90.2253 60.8048 90.2261 60.9352 90.1943C61.0656 90.1625 61.1861 90.099 61.2861 90.0096C61.6683 89.2587 61.9839 88.4757 62.2291 87.6696C62.3112 87.5594 62.4187 87.4706 62.5424 87.4108C62.6661 87.3509 62.8024 87.3217 62.9398 87.3258C63.0771 87.3298 63.2115 87.3669 63.3315 87.4339C63.4515 87.5008 63.5536 87.5958 63.6291 87.7106C64.1721 88.7289 64.6634 89.7738 65.1011 90.8416C65.2513 91.4814 65.337 92.1347 65.3571 92.7916C65.4161 93.2396 65.5571 94.1656 65.7571 95.0266C65.9261 95.7886 66.4851 96.0046 66.6311 95.8476C67.0912 94.4433 67.3993 92.9937 67.5501 91.5236C67.5481 90.9326 67.2691 90.0246 67.0651 88.6626Z" fill="url(#paint0_linear_1791_130868)"/>
<defs>
<linearGradient id="paint0_linear_1791_130868" x1="33.7751" y1="0.499023" x2="33.7751" y2="175.501" gradientUnits="userSpaceOnUse">
<stop stop-color="#FF7E39"/>
<stop offset="1" stop-color="#FFBC91"/>
</linearGradient>
</defs>
</svg>
