<svg width="20" height="22" viewBox="0 0 20 22" fill="none" xmlns="http://www.w3.org/2000/svg">
<path d="M10 0C4.54861 0 0 3.97403 0 9C0 14.026 4.54861 18 10 18C10.3462 18 10.6652 17.9305 11 17.8984V21.0938L12.541 20.1055C14.7032 18.7177 19.385 15.1154 19.9434 9.94531C19.9788 9.63775 20 9.32275 20 9C20 3.97403 15.4514 0 10 0ZM10 2C14.4906 2 18 5.18997 18 9C18 9.2406 17.9851 9.48063 17.957 9.72266V9.72656L17.9551 9.73047C17.6095 12.931 15.0475 15.4448 13 17.084V15.5723L11.8027 15.8145C11.2171 15.9327 10.6153 16 10 16C5.50939 16 2 12.81 2 9C2 5.18997 5.50939 2 10 2ZM5 8V10H7V8H5ZM9 8V10H11V8H9ZM13 8V10H15V8H13Z" fill="#1685DA"/>
</svg>
